Data Gue - My Writing
…
df_wr <- df_wr %>%
  mutate(title = map_chr(post, function(x) html_text(html_nodes(read_html(x), "h1"))),
         date = date_real) %>%
  select(-post, -date_real)
df_wr_det <- df_wr_det %>%
  mutate(content = map_chr(content, function(x) html_text(read_html(x))),
         content = gsub("?|", "", content))
df_wr_token <- df_wr_det %>%
  mutate(id_pr = row_number()) %>%
  select(id, id_pr, everything()) %>%
  unnest_tokens(word, content, drop = FALSE)
df_wr_token

## # A tibble: 136,392 x 6
##       id id_pr   date
##    <int> <int> <date>
##  1     1     1     NA
##  2     1     1     NA
##  3     1     1     NA
##  4     1     1     NA
##  5     1     1     NA
##  6     1     1     NA
##  7     1     1     NA
##  8     1     1     NA
##  9     1     1     NA
## 10     1     2     NA
## # ... with 136,382 more rows, and 3 more variables: content <chr>,
## #   type <chr>, word <chr>
…
  anti_join(stop_words) %>%
  anti_join(readLines("data/sw.txt", warn=FALSE) %>%
              data_frame(word=.)) %>%
  anti_join(readLines("data/gaul.txt", warn=FALSE) %>%
              data_frame(word=.)) %>%
  count(year, word, sort = TRUE) %>%
  # inner_join(select(df_ovw, year, n_all=n)) %>%
  # mutate(p = n / n_all) %>%
  group_by(year) %>%
  mutate(p = n / sum(n)) %>%
  filter(!is.na(year)) %>%
  ungroup()
df_top_yearly

## # A tibble: 11,925 x 4
##     year  word     n        p
##    <dbl> <chr> <int>    <dbl>
##  1  2017  data   555 0.017811
##  2  2017  2017   387 0.012420
##  3  2016  data   356 0.019534
##  4  2016  2016   162 0.008889
##  5  2017  life   148 0.004750
##  6  2017 orang   144 0.004621
##  7  2017  time   141 0.004525
##  8  2017   win   141 0.004525
##  9  2017  kudu   131 0.004204
## 10  2016 orang   121 0.006639
## # ... with 11,915 more rows
…
Words Unsaid in Different Years

df_change %>%
  filter(is.na(`2016`) | is.na(`2017`)) %>%
  select(-p_change, -ratio) %>%
  mutate(year = case_when(is.na(`2016`)~"2017",
                          is.na(`2017`)~"2016")) %>%
  select(-`2016`, -`2017`) %>%
  group_by(year) %>%
  top_n(20, n)

## # A tibble: 41 x 3
## # Groups:   year [2]
##           word     n  year
##          <chr> <int> <chr>
##  1         ijo    97  2017
##  2  remunerasi    52  2017
##  3       green    43  2017
##  4 perpindahan    35  2017
##  5       boost    29  2017
##  6        fast    29  2017
##  7      chance    28  2017
##  8       dapet    27  2017
##  9     package    23  2017
## 10     berhati    21  2017
## # ... with 31 more rows
…
